{
  "_links" : {
    "self" : {
      "href" : "http://localhost:8080/persons{&sort,page,size}",
      "templated" : true
    },
    "next" : {
      "href" : "http://localhost:8080/persons?page=1&size=5{&sort}",
      "templated" : true
    }
  },
  "_embedded" :
    [{
      "id": 1,
      "question": "What is your name?",
      "answers":[{
        "id": "1",
        "content": "sadsf"
      },{
        "id": "2",
        "content": "asdas"
      },{
        "id": "3",
        "content": "sdfsdf",
        "isCorrect": true
      }],
      "author": {
        "id": "1",
        "name": "John Berdy"
      },
      "created_at": "2017-09-10T12:56:27.022Z"
  },{
      "id": 2,
      "question": "What is your name?",
      "answers":[{
        "id": 1,
        "content": "sadsf"
      },{
        "id": 2,
        "content": "asdas"
      },{
        "id": 3,
        "content": "sdfsdf",
        "isCorrect": true
      }],
      "author": {
        "id": "1",
        "name": "John Berdy"
      },
      "created_at": "2017-09-10T12:56:27.022Z"
  }],
  "page" : {
    "size" : 5,
    "totalElements" : 50,
    "totalPages" : 10,
    "number" : 0
  }
}
